Introduction to Statistical Computing in R – Extending Joins, Factors, Clean Variable Names
…
In general, factors are used for:

categorical variables with a fixed and known set of possible values.

E.g., day_born = Sunday, Monday, Tuesday, …, Saturday

displaying character vectors in non-alphabetical order.

Eras Tour

Let’s consider songs that Taylor Swift played on her Eras Tour. I have randomly selected 25 songs (and their albums) to consider.

eras_data 

# A tibble: 25 × 2
   Song               Album     
   <chr>              <chr>     
 1 22                 Red       
 2 ...Ready for It?   Reputation
 3 The Archer         Lover     
 4 Bejeweled          Midnights 
 5 Style              1989      
 6 You Belong With Me Fearless  
 7 Don't Blame Me     Reputation
 8 illicit affairs    Folklore  
 9 Lavender Haze      Midnights 
10 marjorie           Evermore  
# ℹ 15 more rows
…
Re-coding a Factor – fct_recode

Oops, we have a typo in some of our levels! We change existing levels with the syntax: "<new level>" = "<old level>".

eras_data |>
  mutate(Album = fct_recode(.f = Album,
                            "folklore" = "Folklore",
                            "evermore" = "Evermore",
                            "reputation" = "Reputation")
         )

# A tibble: 25 × 2
   Song               Album     
   <chr>              <fct>     
 1 22                 Red       
 2 ...Ready for It?   reputation
 3 The Archer         Lover     
 4 Bejeweled          Midnights 
 5 Style              1989      
 6 You Belong With Me Fearless  
 7 Don't Blame Me     reputation
 8 illicit affairs    folklore  
 9 Lavender Haze      Midnights 
10 marjorie           evermore  
# ℹ 15 more rows
…
